<svg xmlns="http://www.w3.org/2000/svg" width="300" height="110" viewBox="0 0 300 110">
  <defs>
    <style>
      .cls-1 {
        fill: #c8613a;
        fill-rule: evenodd;
      }
    </style>
  </defs>
  <path class="cls-1" d="M1446,322.389l-1.22,4.425-24.51,0-2.57,9.243a23.631,23.631,0,0,0-.7,2.868,1.213,1.213,0,0,0,.59,1.069,4.066,4.066,0,0,0,2.1.384q0.525,0,2.64-.145l-1.25,4.424a28.109,28.109,0,0,1-4.21.314q-4.215,0-6.13-1.214a3.808,3.808,0,0,1-1.91-3.376,24.464,24.464,0,0,1,1.02-4.695l2.47-8.871h-3.85l1.21-4.425h3.88l1.57-5.69h7.99l-1.6,5.688H1446Zm-48.31-2.986,1.49-5.4h7.95l-1.49,5.4Zm0.97,25.053-7.95,0,6.14-22.063,7.96,0Zm-23.78,0,8.5-30.455h7.93l-8.47,30.455h-7.96Zm-5.4-8.661a23.058,23.058,0,0,0-1.16,5.526,8.856,8.856,0,0,0,.66,3.136l-7.73,0a8.572,8.572,0,0,1-.58-2.493,12.729,12.729,0,0,1-4.02,2.235,14.106,14.106,0,0,1-4.57.78,9.781,9.781,0,0,1-6.05-1.8,5.555,5.555,0,0,1-2.38-4.62,5.918,5.918,0,0,1,2.62-5.049q2.61-1.891,9.35-2.287a48.587,48.587,0,0,0,7.59-.853,5.587,5.587,0,0,0,.5-1.994,1.873,1.873,0,0,0-1.02-1.6,5.829,5.829,0,0,0-3.05-.643,7.271,7.271,0,0,0-3.37.655,3.427,3.427,0,0,0-1.68,1.86l-7.75-.5a9.5,9.5,0,0,1,4.64-4.612,19.645,19.645,0,0,1,8.77-1.664q5.67,0,8.39,1.712c1.82,1.143,2.72,2.538,2.72,4.186a10.162,10.162,0,0,1-.24,2.12Q1370.9,331.02,1369.48,335.8Zm-9.23-1.349c-3.99.362-6.6,0.888-7.81,1.58a2.266,2.266,0,0,0-1.31,2.016,2.122,2.122,0,0,0,1,1.755,4.43,4.43,0,0,0,2.63.716,8.874,8.874,0,0,0,3.4-.654,5.575,5.575,0,0,0,2.38-1.685,9.665,9.665,0,0,0,1.4-3.209l0.22-.79C1361.68,334.276,1361.04,334.367,1360.25,334.45Zm-35.33,5.2,14.16,0-1.36,4.82-24.05,0,1.13-4.03,16.13-13.381-13.16,0,1.3-4.653,23.08-.005-0.97,3.552Zm-12.72-12.523a8.6,8.6,0,0,0-4.17,1.163,8.735,8.735,0,0,0-3.32,3.107,25.775,25.775,0,0,0-2.35,6.159l-1.94,6.918-7.95,0,6.15-22.063h7.42l-1.19,4.28q4.155-4.8,9.01-4.8a11.821,11.821,0,0,1,3.68.645l-3.04,4.881A8.926,8.926,0,0,0,1312.2,327.127Zm-42.15,8.17c-0.02.237-.03,0.416-0.03,0.541a4.338,4.338,0,0,0,1.68,3.553,6.3,6.3,0,0,0,4.08,1.348,7.167,7.167,0,0,0,6.18-3.076l7.13,0.893a13,13,0,0,1-5.56,4.831,18.365,18.365,0,0,1-7.8,1.611,15.517,15.517,0,0,1-9.64-2.813,8.885,8.885,0,0,1-3.72-7.447,11.406,11.406,0,0,1,3.35-8.061q4.575-4.779,13.05-4.78,5.415,0,8.59,2.5a8.394,8.394,0,0,1,3.19,7.01,12.66,12.66,0,0,1-.55,3.885Zm11.8-7.917a5.946,5.946,0,0,0-3.93-1.224,7.4,7.4,0,0,0-4.42,1.394,6.891,6.891,0,0,0-2.65,4.112l12.44,0q0.03-.395.03-0.6A4.518,4.518,0,0,0,1281.85,327.38Zm-41.37,17.106-1.44-14.044-8.98,14.045h-7.37l-3.69-22.06h7.07l2.05,14.791,9.17-14.794h7.23l1,14.791,9.12-14.792,7.98,0-14.66,22.066h-7.48Z" transform="translate(-1182.5 -274.5)"/>
</svg>
