<svg xmlns="http://www.w3.org/2000/svg" width="17.531" height="21.28" viewBox="0 0 17.531 21.28">
  <path d="M576.492,3209.54s-12.766.01-14.141,0a2.267,2.267,0,0,1-1.855-1.66s-0.033-10.34,0-11.37a2.7,2.7,0,0,1,1.088-1.79l10.237-6.21c2.224-.98,1.919,1.18,1.919,1.18v10.47a2.754,2.754,0,0,1-1.472,2.62s-6.238,2.64-7.614,3.24-1.535.45-1.6,1.17,0.831,0.48.831,0.48,7.629-2.25,9.661-2.89a2.264,2.264,0,0,0,1.856-2.27v-6.97h1.343a1.533,1.533,0,0,1,1.28,1.31v11.1A1.521,1.521,0,0,1,576.492,3209.54Zm-6.974-12.34a2.189,2.189,0,0,0,1.407-1.79c-0.032-1.09-.7-0.97-0.7-0.97a1.9,1.9,0,0,0-1.663,1.86C568.51,3197.47,569.325,3197.25,569.518,3197.2Z" transform="translate(-560.5 -3188.25)"/>
</svg>
