<svg xmlns="http://www.w3.org/2000/svg" width="44" height="44" viewBox="0 0 44 44">
  <path class="cls-2" d="M1181.67,45.593l-1.39,1.391-6.33-6.328a8.364,8.364,0,1,1,1.39-1.391ZM1173.33,29.6a6.392,6.392,0,1,0,0,9.04A6.391,6.391,0,0,0,1173.33,29.6Z" transform="translate(-1148 -13)"/>
</svg>
